["Fri Oct 25 12:5", "US", "Louisville Central, KY", "Hope all my pledge bros have a great time tonight, wish I could be there! Dress warmly! @coreybiddle @Big_Country_13 @Epete3"]
["Fri Oct 25 12:5", "US", "Farmington, UT", "Why do i have to pay additional units of money for additional units of work? Its not like get paid each month! \u2026wait http://t.co/NPhsPdMG6t"]
["Fri Oct 25 12:5", "US", "Brentwood, NY", "\u201c@unkn0wndreams_: Need food in my system !\u201d"]
["Fri Oct 25 12:5", "US", "Scott Lake, FL", "I actually thought I was going to be home alone with lots of food but I thought wrong"]
["Fri Oct 25 12:5", "US", "Chapel Hill, NC", "\"I came here with great hope and I will continue I come here with great hope.\" -Coach Cowher"]
["Fri Oct 25 12:5", "US", "Dahlonega, GA", "@ebhallman don't forget it plays at 11 am our time!!!"]
["Fri Oct 25 12:5", "US", "Greenville, NC", "Time to eat my bagel and go back to bed \ud83d\ude0b\ud83d\ude34"]
["Fri Oct 25 12:5", "US", "Fredonia, NY", "Gotta make sure to download the new Katy perry so I can have it for my drive home \ud83d\ude1c"]
["Fri Oct 25 12:5", "US", "Round Rock, TX", "Why does almost every teacher at rr have an attitude"]
["Fri Oct 25 12:5", "US", "Mount Vernon, NY", "''And whatever things you ask in prayer, believing, you will receive.''\n\n    -Matthew 21:22"]
["Fri Oct 25 12:5", "US", "Chicago, IL", "I'm at Kramers Health Foods (Chicago, IL) http://t.co/GfbUlNZEXD"]
["Fri Oct 25 12:5", "US", "Madison, WI", "\u00a8The test we must set for ourselves is not to march alone but to march in such a way that others wish to join us. - Hubert Humphrey"]
["Fri Oct 25 12:5", "US", "Manhattan, NY", "@BassicBunny yeah haha you're right. might need a little help on that one \ud83d\udc40"]
["Fri Oct 25 12:5", "US", "Wilmington, NC", "Awkward I just realized the caption on my snapchat story didn't show up"]
["Fri Oct 25 12:5", "US", "San Francisco, CA", "Porque este es el show de damas gratis"]
["Fri Oct 25 12:5", "US", "Plano, TX", "I often get idioms wrong, but hey, you can't judge a book by its color"]
["Fri Oct 25 12:5", "US", "Chicago, IL", "pure gold. \u201c@IUAdmissions: TGIF #Hoosiers! Get your weekend started right with the Fists and Blades! http://t.co/8exaTESVJs #IUpride\u201d"]
["Fri Oct 25 12:5", "US", "Broken Arrow, OK", "I'm falling apart. I'm barely breathing with a broken heart that's still beating."]
["Fri Oct 25 12:5", "US", "Tulsa, OK", "Just got the best news ever \ud83d\ude0a\ud83d\ude0a\ud83d\ude0a I can't even concentrate. Good thing we have meetings &amp; huddles &amp; other things to do than be on the phone."]
["Fri Oct 25 12:5", "US", "Columbia, MO", "@StarTrek \"This is a very simple magic trick Mr. Nelix, but I assure you that it will wow them at the Voyager talent show\"."]
["Fri Oct 25 12:5", "US", "Pearl, MS", "@MikeStone601 oh ok well u will gt sme rest thn"]
["Fri Oct 25 12:5", "US", "Greenville, NC", "Austin got pulled up to varsity and @danielllefail is on homecoming court. Hope ya'll do great out there tonight! I'll be cheering ya'll on!"]
["Fri Oct 25 12:5", "US", "Austin, TX", "When a guy tells you no one will find out, that's fair warning that he's telling his boys bout what the fuck happened"]
["Fri Oct 25 12:5", "US", "Fort Worth, TX", "@altonbrown my ties came in last night...ready to wear them next week at work :) http://t.co/6xtnyyh5Jq"]
["Fri Oct 25 12:5", "US", "South Brunswick, NJ", "Good morning to all my friends and family it's finally Friday hope everyone have a fantastic day enjoy!!!"]
["Fri Oct 25 12:5", "US", "Willimantic, CT", "You know I'm going to chem because I grab the first sweat outfit I see and just go"]
["Fri Oct 25 12:5", "US", "University Heights, OH", "\u201c@Things4WhitePpl: Spending hours trying to find something to watch on Netflix\u201d @Smeller_Keller"]
["Fri Oct 25 12:5", "US", "Raleigh, NC", "Im waiting to explode, time bomb!!!!!!"]
["Fri Oct 25 12:5", "US", "Grundy, VA", "@Deb777 @katr03 @FrenchShickFan I think Nov sweeps will bring a sort of Shick reunion &amp; then JFP will rip them apart by exposing Sharon! :-("]
["Fri Oct 25 12:5", "US", "Mirrormont, WA", "Palin: We should practice Xmas and Easter the way Jesus did. http://t.co/RvZpe8FA4l"]
["Fri Oct 25 12:5", "US", "Manhattan, NY", "waking up in new york city"]
["Fri Oct 25 12:5", "US", "Farmington, UT", "Why do i have to pay additional units of money for additional units of work? Its not like I get paid each month!\u2026wait http://t.co/NPhsPdMG6t"]
["Fri Oct 25 12:5", "US", "Baltimore, MD", "Hey, folks, #Obamacare is nothing more than affordable health care insurance. Take your foot off the panic pedal."]
["Fri Oct 25 12:5", "US", "Iowa City, IA", "My only form of verbal communication today will be grunting"]
["Fri Oct 25 12:5", "US", "Chattanooga, TN", "Wanna be a baller, shot caller\nTwenty inch blades on the Impala"]
["Fri Oct 25 12:5", "US", "Hobbs, NM", "Never will i do this again..."]
["Fri Oct 25 12:5", "US", "Colorado Springs, CO", "Played my first game at 50 with Ret in a long time. Got owned by @Guilliusx but was a lot of fun. Just have to relearn how to play this army"]
["Fri Oct 25 12:5", "US", "Powell, TN", "@Jules_youngin that'd be super cute. I'll see what I can do. Imma be up in Seymour anyway."]
["Fri Oct 25 12:5", "US", "Mount Vernon, NY", "RT \"@StefiePie_: I'm into youu, I'm into youuu \ud83c\udfb6 \u201c@MaureciaB: After all this time, I'm still into you \u266a\u201d\""]
["Fri Oct 25 12:5", "US", "Wilmington, NC", "Just got to get through these two classes then I will be Clinton bound"]
["Fri Oct 25 12:5", "US", "Lumberton, NJ", "Bong rips til work seems ok"]
["Fri Oct 25 13:0", "US", "DeSoto, TX", "Anybody know pep rally schedule?"]
["Fri Oct 25 13:0", "US", "Little Rock, AR", "We had a little time to kill, so why not visit the capital building! \ud83d\udc81 #nerds #LR @iamdaniwilson @\u2026 http://t.co/CBlCDkLqGE"]
["Fri Oct 25 13:0", "US", "Florida, US", "@FFS_cafc About what time are you starting?"]
["Fri Oct 25 13:0", "US", "Fort McCoy-Anthony, FL", "I watched 1 episode of the new teen wolf after that I stopped . You can't have teen wolf without Jackson ."]
["Fri Oct 25 13:0", "US", "Winston, NC", "Wish a nigga would try to screw me ova !!!"]
["Fri Oct 25 13:0", "US", "East Meadow, NY", "Watch."]
["Fri Oct 25 13:0", "US", "Lafayette, LA", "I'm gonna break your little heart and watch you take the fall \ud83c\udfb6"]
["Fri Oct 25 13:0", "US", "Iselin, NJ", "New Jersey Paralegal Convention with @DGRLegal (@ Renaissance Woodbridge Hotel - @marriottintl) http://t.co/DQg6fCMduA"]
["Fri Oct 25 13:0", "US", "Ames, IA", "Many people are singing, who's being touched?  Too much entertainment. Without God, we can do nothing! Anointing, fall on Me!! Love you!"]
["Fri Oct 25 13:0", "US", "Paradise, NV", "Next time we fuck ; I don't want to fuck I wanna make love . Next time we talk I don't just want to talk I want to trust ."]
["Fri Oct 25 13:0", "US", "Denver, CO", "Manufacturing Technician - Kelly Services: ( #Denver , CO) http://t.co/pdH1aXzf7r #Manufacturing #KellyJobs #KellyServices #Job"]
["Fri Oct 25 13:0", "US", "Denton, TX", "How I woke up this morning is seriously the work of some outside mystical force."]
["Fri Oct 25 13:0", "US", "Grandville, MI", "Why would you tell us your not going to test us on this? #dumbteacher"]
["Fri Oct 25 13:0", "US", "Austin, TX", "#HR #Job in #Austin , TX: HRIS Manager (39891) at Whole Foods Market http://t.co/f3RAZtTeKi #Jobs #TweetMyJobs"]
["Fri Oct 25 13:0", "US", "Austin, TX", "About to fail this test. Why don't I care anymore? #overit #hurryChristmas"]
["Fri Oct 25 13:0", "US", "Leesburg, VA", "ISR actually comes clutch today. Do make up work. http://t.co/PCtJg2cIHr"]
["Fri Oct 25 13:0", "US", "Glen Rose, TX", "Yay no test today in 1st period"]
["Fri Oct 25 13:0", "US", "Overland Park, KS", "Kelly Services: OA60 - Database Specialist ( #OverlandPark , KS) http://t.co/May0EnaH8r #Database #KellyJobs #KellyServices #Job"]
["Fri Oct 25 13:0", "US", "Staten Island, NY", "Getting back to work, ill have the body I want in a month \ud83d\udc4c\ud83d\udcaa"]
["Fri Oct 25 13:0", "US", "Kenosha, WI", "I wear yoga pants and leggings all the time and havent got caught once. But i have a bad feeling about today."]
["Fri Oct 25 13:0", "US", "Georgia, US", "#NEW #PROMO #CantGiveUp #WhoIsShaneDonavon get onboard now &amp; follow @DarealShaneD http://t.co/IkN5NqkHZx\n#ForMusicLoversOnly #HipHop\u201d"]
["Fri Oct 25 13:0", "US", "Clayton, MO", "Note to self: never cut off a Clayton mom #viciousbitch"]
["Fri Oct 25 13:0", "US", "Somerville, MA", "@takazajw @DuncanDaHusky It means he likes you &gt;.&gt;  YouTube version (still official): http://t.co/4eyXNn10ou"]
["Fri Oct 25 13:0", "US", "Tampa, FL", "Porque quando o esporte \u00e9 bom at\u00e9 quando o time \u00e9 ruim \u00e9 do caralho!!!! #nfl @asouzabarbosa @ Raymond\u2026 http://t.co/VkL1Cqm4Af"]
["Fri Oct 25 13:0", "US", "Durham, NC", "Let me go jump in the shower , &amp; get my ratchet attitude togetha since it is Friday \ud83d\ude0f"]
["Fri Oct 25 13:0", "US", "Nebraska City, NE", "#NebraskaCity , NE #Retail #Job: NE Store Manager Nebraska Ci... at Family Dollar http://t.co/AjKiA5KJDW #FamilyDollar #VeteranJob"]
["Fri Oct 25 13:0", "US", "Kansas, US", "#Sales #Job in #Kansas , KS: Large Animal Sales Representative Salina KS at Merial http://t.co/b08uKQvfcF #Jobs #TweetMyJobs"]
["Fri Oct 25 13:0", "US", "South Fayette, PA", "I just saw a couple patches of snow on the ground. Now if only I could see it falling!"]
["Fri Oct 25 13:0", "US", "Garland, TX", "Driving to work under a clear sky, drinking a smoothie through a silly straw. #lifeisgood"]
["Fri Oct 25 13:0", "US", "Juniata, MI", "Recovery coaches should not work in the same place they r getting recovery in and am not sure they should b a coach if they r still In recov"]
["Fri Oct 25 13:0", "US", "Springfield, OH", "Sigor ros has a new cd. tgif."]
["Fri Oct 25 13:0", "US", "Spring, TX", "I'm doing pretty good in health \ud83d\ude31"]
["Fri Oct 25 13:0", "US", "Clifton, NJ", "I'm going right after to school to get a haircut than I have nothing to worry about during the weekend"]
["Fri Oct 25 13:0", "US", "Woodstock, GA", "#ghettophotography this morning @ work http://t.co/3FQOy92zvp"]
["Fri Oct 25 13:0", "US", "Sanford, FL", "Work...\ud83d\ude29"]
["Fri Oct 25 13:0", "US", "Minneapolis, MN", "@danawhite any chance I could get you to help me with some inner city youth I work with in the mornings in Minneapolis please =)"]
["Fri Oct 25 13:0", "US", "Minneapolis, MN", "@danawhite any chance I could get you to help me with some inner city youth I work with in the mornings in Minneapolis please =)"]
["Fri Oct 25 13:0", "US", "Manhattan, NY", "ACAMS test prep (@ ONE UN New York - @millenniumpr w/ 3 others) http://t.co/tIoPCUSxPs"]
["Fri Oct 25 13:0", "US", "Frankenlust, MI", "I had a dream that me @MakenzieHigby ad @dhigs2012 saved a nest of like thirty baby bunnies that got shot at \ud83d\udcaa #higbystotherescue"]
["Fri Oct 25 13:0", "US", "Boston, MA", "\"Wild Mule\" Celebrating #100 libations! Our new fall/winter cocktail menu designed by Ki Bar is the\u2026 http://t.co/0XeEwr66Wq"]
["Fri Oct 25 13:0", "US", "Indiana, PA", "If I can't breathe in this weather I wonder how she does it."]
["Fri Oct 25 13:0", "US", "East Stroudsburg, PA", "Sick just in time for the weekend\ud83c\udf89"]
["Fri Oct 25 13:0", "US", "Massie, VA", "Woke up at 8:30 and still made it to my 9:05 on time #talent"]
["Fri Oct 25 13:0", "US", "Somerville, NJ", "2 ladies on the train both in the phone both speaking forgin languages,me? I'm just trying to study  #fml #outoftheloop #collegeproblems"]
["Fri Oct 25 13:0", "US", "Muncie, IN", "I wish it was 12:50 right now so I could be leaving my last class, omw back to my dorm and ready for nap time!"]
["Fri Oct 25 13:0", "US", "Fort Worth, TX", "I watch this every single day man! \ud83d\ude0d\ud83d\udc4f\ud83d\ude18 my bb Kendrick! AYYYEEEE! (; http://t.co/VUMSulppzW"]
["Fri Oct 25 13:0", "US", "Newark, OH", "Smoke detectors are now on the terrorist watch list"]
["Fri Oct 25 13:0", "US", "Chicago, IL", "I\u2019m going to be spending more time twitting. It is cold in Chicago but I still think it is the best city in the world."]
["Fri Oct 25 13:0", "US", "Union City, NJ", "@tweetbot how do we adjust the text size  in the new app? Can\u2019t find it in the settings."]
["Fri Oct 25 13:0", "US", "Muncie, IN", "Walmart in Muncie has self checkout now! Ermahgerd finally"]
["Fri Oct 25 13:0", "US", "Amherst, NY", "It\u2019s holiday time the best time to have a side piece"]
["Fri Oct 25 13:0", "US", "Santo Domingo, NM", "Ma\u00f1ana -------&gt; #DangerFamily PRESENTA:\nParty DANGER\nMas Info: Tirame Por DM! \n#TeamDanger"]
["Fri Oct 25 13:0", "US", "Lexington-Fayette, KY", "Breathe in, exhale your fears."]
["Fri Oct 25 13:0", "US", "Kentucky, US", "I can't wait for this new up gotti album"]
["Fri Oct 25 13:0", "US", "Ann Arbor, MI", "@K_M_26 way to show up to class lol"]
["Fri Oct 25 13:0", "US", "Charlestown, OH", "@Lana_DelSiegel we give you truffles all the time."]
["Fri Oct 25 13:0", "US", "Jacksonville, FL", "\u201c@BestofAries: True #Aries are really stubborn and will ram their horns into a wall multiple times before realizing there's a wall there.\u201d\ud83d\ude02\ud83d\ude02"]
["Fri Oct 25 13:0", "US", "Spindale, NC", "I awaken by my son\ud83d\ude0d I swear he looks more like me every time i look at him."]
["Fri Oct 25 13:0", "US", "Kentucky, US", "cant wait too start my new job"]
["Fri Oct 25 13:0", "US", "Huntsville, TX", "Puking before work idk if that mean a good night or what"]
["Fri Oct 25 13:0", "US", "Baltimore, MD", "@jasmiinejazzy just unfollow why worry abt how many likes u get as long as u like ur pic thats all tht matter u dont need confirmation#chill"]
["Fri Oct 25 13:0", "US", "Kenosha, WI", "@twizzle7414 im fine I start school soon.  . You get another job yet lol"]
["Fri Oct 25 13:0", "US", "Clearwater, FL", "Mornings are always so promising"]
["Fri Oct 25 13:0", "US", "New Rochelle, NY", "I'm actually in class right now..like what psycho path does all of that and makes it to class at 9 a.m please try to tell me"]
["Fri Oct 25 13:0", "US", "Burlington, VT", "@alainaomalley happy birthday Lainey! Hope you have a great day \ud83c\udf88"]
["Fri Oct 25 13:0", "US", "Cambridge, MA", "@canoeberry what load? There's no load. No one can do basic things."]
["Fri Oct 25 13:0", "US", "Florence, AL", "@caitlinpmiller ... I'm not gonna even lie I thought that said 3 new tits \ud83d\ude02\ud83d\ude02\ud83d\ude2d"]
["Fri Oct 25 13:0", "US", "Hanover, IN", "One of the dryers doesn't work so I don't have any sweatpants for today."]
["Fri Oct 25 13:0", "US", "Massachusetts, US", "If you have decided to get a dog. Try your local shelter. There are some great dogs there looking to be your friend. Cats too."]
["Fri Oct 25 13:0", "US", "Los Angeles, CA", "Time............this is for your FUTURe out this World fantasic old testament rules no Human rules religi\u00f3n rights cool...got a lawyer any"]
["Fri Oct 25 13:0", "US", "Boston, MA", "\"Cherry Guava Noir\" Celebrating #100 libations! Our new fall/winter cocktail menu designed by Ki Bar\u2026 http://t.co/vrpwFEHm4e"]
["Fri Oct 25 13:0", "US", "Virginia Beach, VA", "How much you wanna bet that the.@barackobama admin will blame hacking of #German Chancellor's on #Bush"]
["Fri Oct 25 13:0", "US", "Maryland, US", "@PeaceLacrosse will do."]
["Fri Oct 25 13:0", "US", "Philadelphia, PA", "Food straight from the heavens... @ Sabrina's Cafe &amp; Spencer's Too http://t.co/kRhyyidhjT"]
["Fri Oct 25 13:0", "US", "East Stroudsburg, PA", "I just study like the complete wrong thing all the time \ud83d\ude29\ud83d\ude29\ud83d\ude29 #fuckme"]
["Fri Oct 25 13:0", "US", "Texas, US", "Only 3 hours of sleep and yet already feel better about today. All before my first cup of sugar loaded coffee and toast"]
["Fri Oct 25 13:0", "US", "Nashville, TN", "Hearing @TheWildFeathers on @Lightning100 on the way to work &gt; #TGIF"]
["Fri Oct 25 13:0", "US", "Los Angeles, CA", "#cybersecurity Nominum Launches Vantio ThreatAvert To Protect Fixed And Mobile Networks http://t.co/6zmAOHPf7A #infosec"]
["Fri Oct 25 13:0", "US", "Providence, RI", "The ratchetness be on full affect over there"]
["Fri Oct 25 13:0", "US", "Milford Mill, MD", "Back to the grind. Would have been a lot easier with a hot shower this morning. I really hope they fix it by the t... http://t.co/w3I11xs4bL"]
["Fri Oct 25 13:0", "US", "Fort Dodge, IA", "@SarahLegge187 I so wish!!!!! But I work ;( awwww"]
["Fri Oct 25 13:0", "US", "Sabana Llana Sur, PR", "GMS World User has just posted new screenshot to GMS World. Check it out: http://t.co/LZP8XqmhPj"]
["Fri Oct 25 13:0", "US", "Northview, MI", "\u201c@Viva_LaJuicy__: I will forever be down for the people who has been down for me since day 1.\u201d#DailyDuty \u270a\ud83d\udcaf"]
["Fri Oct 25 13:0", "US", "St. Marys, NC", "if y'all put as much work in y'all school work as y'all did these senior crowns maybe y'all would actually be graduating May 2014 ! #ijs"]
["Fri Oct 25 13:0", "US", "Saginaw Township North, MI", "I believe in second chances, but after you blow your 3rd... 4th... 5th... 8th chance... I will just question everything when it comes to you"]
["Fri Oct 25 13:0", "US", "Fort Polk South, LA", "Time to get ready for work. Yay, not! Least it's Friday Friday Friday!"]
["Fri Oct 25 13:0", "US", "Medulla, FL", "To early to be at the doctor"]
["Fri Oct 25 13:0", "US", "Rialto, CA", "\"@JoyceMeyer: Maintaining a good attitude in the midst of something unpleasant is the key to victory and it enables us to enjoy the journey\""]
["Fri Oct 25 13:0", "US", "West Valley City, UT", "I'll have your bxtch breaking up my weed! Got her feigning for the D even tho I only beat one time!"]
["Fri Oct 25 13:0", "US", "Pasadena, TX", "There are still things I don't understand but I have learned to trust Him and not worry about those things anymore"]
["Fri Oct 25 13:0", "US", "Albuquerque, NM", "@AVCupdate you got a job for me to work from home? SemperFi"]
["Fri Oct 25 13:0", "US", "Kaw, MO", "Dining closed until further notice!!! backpacks of care for #foster children picking up another round today :-) http://t.co/ajRSxHTNcg"]
["Fri Oct 25 13:0", "US", "Middletown, CT", "Who said lon couldn't show his face at the bean ."]
["Fri Oct 25 13:0", "US", "Ohio, US", "We will miss you @JMatthewFlyzik, even though you basically hated all of us"]
["Fri Oct 25 13:0", "US", "East Dublin, GA", "@FiftyCENTss  @CutisJackon Hi'. Bro help me make my movies in my head like Oletha Finds A Boaz &amp; Boaz, Olethak Foster CARE Childlin funny!"]
["Fri Oct 25 13:0", "US", "New York, NY", "Looking forward to getting to @PhotoPlusExpo tomorrow in between two great shoots.  Wanna see the new shiny stuff!"]
["Fri Oct 25 13:0", "US", "Miller Place, NY", "@dothemovement Janda does some very good work on muscle strength imbalances. Also good to see it measured with EMG"]
["Fri Oct 25 13:0", "US", "Lafayette, LA", "@SirLimbs Yeah im balling on a budget getting my computer in 2 weeks so my stream will be up like a week or two after ghosts comes out"]
["Fri Oct 25 13:0", "US", "Arden-Arcade, CA", "My hip bone . Collar bones poking.. Lol getting thin out here"]
["Fri Oct 25 13:0", "US", "Jeffersontown, KY", "@kkay_weezy only god can judge you, don't worry about what people are saying about you, prove em wrong."]
["Fri Oct 25 13:0", "US", "Ponca City, OK", "Visiting #PoncaCity, #Oklahoma? Check out this great new app for news, weather, hotels, and food here! http://t.co/D4CeHlh8d7"]
["Fri Oct 25 13:0", "US", "Jacksonville, FL", "Watching duck dynasty my favorite show!"]
["Fri Oct 25 13:0", "US", "Tenderloin, San Francisco", "A Rare Public Housing Success Story\u0085.in New Orleans: There has been little good news on the public housing front... http://t.co/DKAteR6QVS"]
["Fri Oct 25 13:0", "US", "Montgomery, AL", "It's Gameday for the Lady Bears! Going to support some locals this morning! Gametime at 6:45! #Regionals2013 \ud83d\udc3b\ud83d\udc9b\ud83d\ude01\ud83d\udc4f"]
["Fri Oct 25 13:0", "US", "Garland, TX", "\u201c@courtney_stooks: I have no clue what I'm doing in precal\u201d Precal stuff"]
["Fri Oct 25 13:0", "US", "Farmington, MN", "Happy bday beautiful @Gab_Freuler \ud83d\ude18 Hope you have a wonderful day, you definitely deserve it! Love you bb\ud83d\udc95"]
["Fri Oct 25 13:0", "US", "Santa Monica, CA", "Never is too late to try again!  #happyfriday"]
["Fri Oct 25 13:0", "US", "Chicago, IL", "@MelaMarie85 @TheDailyShow try this - http://t.co/TTQ0aJCwFh"]
["Fri Oct 25 13:0", "US", "Corvallis, OR", "@CynthiaGSalameh peace to your spirit."]
["Fri Oct 25 13:0", "US", "Brandon, FL", "But anyway idc idc i'll find  way to get my offical mix in no time .. what im worrying about is getting and Iphone S or C that new random 1"]
["Fri Oct 25 13:0", "US", "Columbia, MO", "@EvnHeath change of plans tonight."]
["Fri Oct 25 13:0", "US", "Irvine, CA", "\u2764\ufe0f\u270c\ufe0f\ud83d\udc9a\ud83d\udc99best workout album #panicatthedisco #vegasnights @bigeasy805 \ud83c\udfbc\u2764\ufe0f http://t.co/nIbiO2oPZc"]
["Fri Oct 25 13:0", "US", "Medulla, FL", "Please don't say I need surgery\ud83d\ude4f"]
["Fri Oct 25 13:0", "US", "Bay Minette, AL", "Lord I hope a job come thru soon .!"]
["Fri Oct 25 13:0", "US", "Boone, NC", "I've been watching this guy try to take the same bolt off my wheel for the past hour."]
["Fri Oct 25 13:0", "US", "Mattoon, IL", "@Buster_ESPN well said Buster, I will be the one person who agrees with you. Martinez has that alive 95-97 fastball. So dirty."]
["Fri Oct 25 13:0", "US", "North Aurora, CO", "No mames I have to take this kid to school when I could sleep in all day till work at 3."]
["Fri Oct 25 13:0", "US", "LaGrange, GA", "I hope a 14 pointer walks out in front of me in the morning."]
["Fri Oct 25 13:0", "US", "Bridgetown North, OH", "Gotta be to work at 10"]
["Fri Oct 25 13:0", "US", "Hammond, IN", "Work, mowing, than idk. gym tomorrow morning #fail but it happens"]
["Fri Oct 25 13:0", "US", "Boston, MA", "Margaret Laws receives award from #chealth13 - unending source of smarts + energy for young health cos + underserved http://t.co/0QaRqJ1cGi"]
["Fri Oct 25 13:0", "US", "Suitland-Silver Hill, MD", "@Pretty__inPINKK yyup for like the second time.  I'm keeping em this time though."]
["Fri Oct 25 13:0", "US", "Wilmington, NC", "lm so tired that I starting drifting asleep when walking to class...#help"]
