state, count
WA, 27
DE, 1
DC, 3
WI, 6
WV, 4
HI, 7
FL, 18
NJ, 11
NM, 4
TX, 38
LA, 10
NC, 13
ND, 1
NE, 2
TN, 9
NY, 27
PA, 22
AK, 3
NV, 14
VA, 4
CO, 11
CA, 123
AL, 9
AR, 4
IL, 11
GA, 10
IN, 18
IA, 3
OK, 5
AZ, 24
ID, 2
ME, 2
MD, 10
MA, 3
OH, 12
UT, 5
MO, 5
MN, 4
MI, 17
KS, 5
MT, 1
MS, 12
SC, 3
KY, 3
OR, 13
